…
[331] "shot_no"  "shot_no"  "shot_yes"
[334] "shot_no"  "shot_yes" "shot_yes"
[337] "shot_no"  "shot_yes" "shot_no" 
[340] "shot_no"  "shot_yes" "shot_yes"
[343] "shot_yes" "shot_yes" "shot_yes"
[346] "shot_yes" "shot_no"  "shot_yes"
[349] "shot_yes" "shot_yes" "shot_no" 
[352] "shot_no"  "shot_yes" "shot_yes"
[355] "shot_no"  "shot_no"  "shot_no" 
[358] "shot_no"  "shot_yes" "shot_yes"
[361] "shot_no"  "shot_yes" "shot_no" 
[364] "shot_yes" "shot_no"  "shot_no" 
[367] "shot_no"  "shot_yes" "shot_yes"
[370] "shot_yes" "shot_yes"
# A tibble: 4,334 x 16
# Groups:   name [5]
       X team_name game_date season period minutes_remaini~ seconds_remaini~ shot_made_flag
   <int> <chr>     <chr>      <int>  <int>            <int>            <int> <chr>         
 1     1 Golden S~ 3/24/17     2016      3                2               35 shot_no       
 2     2 Golden S~ 11/3/16     2016      2               10               51 shot_no       
 3     3 Golden S~ 10/25/16    2016      2                0                6 shot_yes      
 4     4 Golden S~ 11/3/16     2016      2               11               10 shot_no       
 5     5 Golden S~ 1/8/17      2016      4                0               32 shot_yes      
 6     6 Golden S~ 3/16/17     2016      3                5               30 shot_yes      
 7     7 Golden S~ 1/2/17      2016      4                7               57 shot_yes      
 8     8 Golden S~ 12/7/16     2016      4                9               31 shot_yes      
 9     9 Golden S~ 2/28/17     2016      2                0               23 shot_yes      
10    10 Golden S~ 2/1/17      2016      2                0                2 shot_yes      
# ... with 4,324 more rows, and 8 more variables: action_type <chr>, shot_type <chr>,
#   shot_distance <int>, opponent <chr>, x <int>, y <int>, name <chr>, minutes <int>
…
